[gd_scene load_steps=3 format=2]

[ext_resource path="res://sprites/tiles/floresta.png" type="Texture" id=1]

[sub_resource type="CapsuleShape2D" id=1]
radius = 64.0
height = 64.0

[node name="Arvores" type="Node2D"]

[node name="Sprite" type="Sprite" parent="."]
texture = ExtResource( 1 )
region_enabled = true
region_rect = Rect2( 256, 0, 160, 192 )

[node name="Area2D" type="Area2D" parent="."]

[node name="CollisionShape2D" type="CollisionShape2D" parent="Area2D"]
shape = SubResource( 1 )
