[gd_scene load_steps=3 format=2]

[ext_resource path="res://src/Assets/Objects/white circle.png" type="Texture" id=1]
[ext_resource path="res://src/Scripts/Objects/ShadowMeteor.gd" type="Script" id=2]

[node name="ShadowMeteor" type="Node2D"]
script = ExtResource( 2 )

[node name="Sprite" type="Sprite" parent="."]
modulate = Color( 0.14902, 0.113725, 0.113725, 0.717647 )
scale = Vector2( 0.01, 0.007 )
texture = ExtResource( 1 )

[node name="AutoDestruct" type="Timer" parent="."]
wait_time = 1.1
one_shot = true

[node name="Tween" type="Tween" parent="."]
[connection signal="timeout" from="AutoDestruct" to="." method="_on_AutoDestruct_timeout"]
