[gd_scene load_steps=6 format=2]

[ext_resource path="res://src/Assets/Fasemapa.tres" type="TileSet" id=1]
[ext_resource path="res://src/Scenes/Player/Player.tscn" type="PackedScene" id=2]

[sub_resource type="RectangleShape2D" id=1]
extents = Vector2( 608.989, 36.8509 )

[sub_resource type="RectangleShape2D" id=2]
extents = Vector2( 16.6444, 386.305 )

[sub_resource type="RectangleShape2D" id=3]
extents = Vector2( 613.563, 17.3785 )

[node name="Negacao" type="Node2D"]

[node name="TileMap" type="TileMap" parent="."]
modulate = Color( 0.870588, 0.333333, 0.333333, 1 )
tile_set = ExtResource( 1 )
cell_size = Vector2( 32, 32 )
format = 1
tile_data = PoolIntArray( -2, 4, 0, -1, 4, 0, -65536, 4, 0, -65535, 4, 0, -65534, 4, 0, -65533, 4, 0, -65532, 4, 0, -65531, 4, 0, -65530, 4, 0, -65529, 4, 0, -65528, 4, 0, -65527, 4, 0, -65526, 4, 0, -65525, 4, 0, -65524, 4, 0, -65523, 4, 0, -65522, 4, 0, -65521, 4, 0, -65520, 4, 0, -65519, 4, 0, -65518, 4, 0, -65517, 4, 0, -65516, 4, 0, -65515, 4, 0, -65514, 4, 0, -65513, 4, 0, -65512, 4, 0, -65511, 4, 0, -65510, 4, 0, -65509, 4, 0, -65508, 4, 0, -65507, 4, 0, -65506, 4, 0, -65505, 4, 0, -65504, 4, 0, -65503, 4, 0, -65502, 4, 0, -65501, 4, 0, -65500, 4, 0, -65499, 4, 0, -65498, 4, 0, -65497, 4, 0, -65496, 4, 0, -65495, 4, 0, 65534, 4, 0, 65535, 4, 0, 0, 536870916, 0, 1, 536870916, 0, 2, 536870916, 0, 3, 536870916, 0, 4, 536870916, 0, 5, 536870916, 0, 6, 536870916, 0, 7, 536870916, 0, 8, 536870916, 0, 9, 536870916, 0, 10, 536870916, 0, 11, 536870916, 0, 12, 536870916, 0, 13, 536870916, 0, 14, 536870916, 0, 15, 536870916, 0, 16, 536870916, 0, 17, 536870916, 0, 18, 536870916, 0, 19, 536870916, 0, 20, 536870916, 0, 21, 536870916, 0, 22, 536870916, 0, 23, 536870916, 0, 24, 536870916, 0, 25, 536870916, 0, 26, 536870916, 0, 27, 536870916, 0, 28, 536870916, 0, 29, 536870916, 0, 30, 536870916, 0, 31, 536870916, 0, 32, 536870916, 0, 33, 536870916, 0, 34, 536870916, 0, 35, 536870916, 0, 36, 536870916, 0, 37, 536870916, 0, 38, 536870916, 0, 39, 536870916, 0, 40, 4, 0, 41, 4, 0, 131070, 4, 0, 131071, 4, 0, 65536, -1610612732, 0, 65537, 3, 0, 65538, 536870915, 0, 65539, 3, 0, 65540, 536870915, 0, 65541, 3, 0, 65542, 536870915, 0, 65543, 3, 0, 65544, 536870915, 0, 65545, 3, 0, 65546, 536870915, 0, 65547, 3, 0, 65548, 536870915, 0, 65549, 3, 0, 65550, 536870915, 0, 65551, 3, 0, 65552, 536870915, 0, 65553, 3, 0, 65554, 536870915, 0, 65555, 3, 0, 65556, 536870915, 0, 65557, 3, 0, 65558, 536870915, 0, 65559, 3, 0, 65560, 536870915, 0, 65561, 3, 0, 65562, 536870915, 0, 65563, 3, 0, 65564, 536870915, 0, 65565, 3, 0, 65566, 536870915, 0, 65567, 3, 0, 65568, 536870915, 0, 65569, 3, 0, 65570, 536870915, 0, 65571, 3, 0, 65572, 536870915, 0, 65573, 3, 0, 65574, 536870915, 0, 65575, -1610612732, 0, 65576, 4, 0, 65577, 4, 0, 196606, 4, 0, 196607, 4, 0, 131072, -1610612732, 0, 131111, -1610612732, 0, 131112, 4, 0, 131113, 4, 0, 262142, 4, 0, 262143, 4, 0, 196608, -1610612732, 0, 196647, -1610612732, 0, 196648, 4, 0, 196649, 4, 0, 327678, 4, 0, 327679, 4, 0, 262144, -1610612732, 0, 262145, -1073741822, 0, 262146, 536870913, 0, 262147, 536870913, 0, 262148, 536870913, 0, 262149, 536870913, 0, 262150, 536870913, 0, 262151, 536870913, 0, 262152, 1, 0, 262153, 1, 0, 262154, 1, 0, 262155, 1, 0, 262156, 1, 0, 262157, 1, 0, 262158, 1, 0, 262159, 1, 0, 262160, 1, 0, 262161, 1, 0, 262162, 1, 0, 262163, 1, 0, 262164, 1, 0, 262165, 1, 0, 262166, 1, 0, 262167, 1, 0, 262168, 1, 0, 262169, 1, 0, 262170, 1, 0, 262171, 1, 0, 262172, 1, 0, 262173, 1, 0, 262174, 1, 0, 262175, 1, 0, 262176, 1, 0, 262177, 1, 0, 262178, 1, 0, 262179, 1, 0, 262180, 1, 0, 262181, 1, 0, 262182, 2, 0, 262183, -1610612732, 0, 262184, 4, 0, 262185, 4, 0, 393214, 4, 0, 393215, 4, 0, 327680, -1610612732, 0, 327681, -1073741823, 0, 327682, 0, 0, 327683, 0, 0, 327684, 0, 0, 327685, 0, 0, 327686, 0, 0, 327687, 0, 0, 327688, 0, 0, 327689, 0, 0, 327690, 0, 0, 327691, 0, 0, 327692, 0, 0, 327693, 0, 0, 327694, 0, 0, 327695, 0, 0, 327696, 0, 0, 327697, 0, 0, 327698, 0, 0, 327699, 0, 0, 327700, 0, 0, 327701, 0, 0, 327702, 0, 0, 327703, 0, 0, 327704, 0, 0, 327705, 0, 0, 327706, 0, 0, 327707, 0, 0, 327708, 0, 0, 327709, 0, 0, 327710, 0, 0, 327711, 0, 0, 327712, 0, 0, 327713, 0, 0, 327714, 0, 0, 327715, 0, 0, 327716, 0, 0, 327717, 0, 0, 327718, -1610612735, 0, 327719, -1610612732, 0, 327720, 4, 0, 327721, 4, 0, 458750, 4, 0, 458751, 4, 0, 393216, -1610612732, 0, 393217, -1073741823, 0, 393218, 0, 0, 393219, 0, 0, 393220, 0, 0, 393221, 0, 0, 393222, 0, 0, 393223, 0, 0, 393224, 0, 0, 393225, 0, 0, 393226, 0, 0, 393227, 0, 0, 393228, 0, 0, 393229, 0, 0, 393230, 0, 0, 393231, 0, 0, 393232, 0, 0, 393233, 0, 0, 393234, 0, 0, 393235, 0, 0, 393236, 0, 0, 393237, 0, 0, 393238, 0, 0, 393239, 0, 0, 393240, 0, 0, 393241, 0, 0, 393242, 0, 0, 393243, 0, 0, 393244, 0, 0, 393245, 0, 0, 393246, 0, 0, 393247, 0, 0, 393248, 0, 0, 393249, 0, 0, 393250, 0, 0, 393251, 0, 0, 393252, 0, 0, 393253, 0, 0, 393254, -1610612735, 0, 393255, -1610612732, 0, 393256, 4, 0, 393257, 4, 0, 524286, 4, 0, 524287, 4, 0, 458752, -1610612732, 0, 458753, -1073741823, 0, 458754, 0, 0, 458755, 0, 0, 458756, 0, 0, 458757, 0, 0, 458758, 0, 0, 458759, 0, 0, 458760, 0, 0, 458761, 0, 0, 458762, 0, 0, 458763, 0, 0, 458764, 0, 0, 458765, 0, 0, 458766, 0, 0, 458767, 0, 0, 458768, 0, 0, 458769, 0, 0, 458770, 0, 0, 458771, 0, 0, 458772, 0, 0, 458773, 0, 0, 458774, 0, 0, 458775, 0, 0, 458776, 0, 0, 458777, 0, 0, 458778, 0, 0, 458779, 0, 0, 458780, 0, 0, 458781, 0, 0, 458782, 0, 0, 458783, 0, 0, 458784, 0, 0, 458785, 0, 0, 458786, 0, 0, 458787, 0, 0, 458788, 0, 0, 458789, 0, 0, 458790, -1610612735, 0, 458791, -1610612732, 0, 458792, 4, 0, 458793, 4, 0, 589822, 4, 0, 589823, 4, 0, 524288, -1610612732, 0, 524289, -1073741823, 0, 524290, 0, 0, 524291, 0, 0, 524292, 0, 0, 524293, 0, 0, 524294, 0, 0, 524295, 0, 0, 524296, 0, 0, 524297, 0, 0, 524298, 0, 0, 524299, 0, 0, 524300, 0, 0, 524301, 0, 0, 524302, 0, 0, 524303, 0, 0, 524304, 0, 0, 524305, 0, 0, 524306, 0, 0, 524307, 0, 0, 524308, 0, 0, 524309, 0, 0, 524310, 0, 0, 524311, 0, 0, 524312, 0, 0, 524313, 0, 0, 524314, 0, 0, 524315, 0, 0, 524316, 0, 0, 524317, 0, 0, 524318, 0, 0, 524319, 0, 0, 524320, 0, 0, 524321, 0, 0, 524322, 0, 0, 524323, 0, 0, 524324, 0, 0, 524325, 0, 0, 524326, -1610612735, 0, 524327, -1610612732, 0, 524328, 4, 0, 524329, 4, 0, 655358, 4, 0, 655359, 4, 0, 589824, -1610612732, 0, 589825, -1073741823, 0, 589826, 0, 0, 589827, 0, 0, 589828, 0, 0, 589829, 0, 0, 589830, 0, 0, 589831, 0, 0, 589832, 0, 0, 589833, 0, 0, 589834, 0, 0, 589835, 0, 0, 589836, 0, 0, 589837, 0, 0, 589838, 0, 0, 589839, 0, 0, 589840, 0, 0, 589841, 0, 0, 589842, 0, 0, 589843, 0, 0, 589844, 0, 0, 589845, 0, 0, 589846, 0, 0, 589847, 0, 0, 589848, 0, 0, 589849, 0, 0, 589850, 0, 0, 589851, 0, 0, 589852, 0, 0, 589853, 0, 0, 589854, 0, 0, 589855, 0, 0, 589856, 0, 0, 589857, 0, 0, 589858, 0, 0, 589859, 0, 0, 589860, 0, 0, 589861, 0, 0, 589862, -1610612735, 0, 589863, -1610612732, 0, 589864, 4, 0, 589865, 4, 0, 655361, 0, 0, 655362, 0, 0, 655363, 0, 0, 655364, 0, 0, 655365, 0, 0, 655366, 0, 0, 655367, 0, 0, 655368, 0, 0, 655369, 0, 0, 655370, 0, 0, 655371, 0, 0, 655372, 0, 0, 655373, 0, 0, 655374, 0, 0, 655375, 0, 0, 655376, 0, 0, 655377, 0, 0, 655378, 0, 0, 655379, 0, 0, 655380, 0, 0, 655381, 0, 0, 655382, 0, 0, 655383, 0, 0, 655384, 0, 0, 655385, 0, 0, 655386, 0, 0, 655387, 0, 0, 655388, 0, 0, 655389, 0, 0, 655390, 0, 0, 655391, 0, 0, 655392, 0, 0, 655393, 0, 0, 655394, 0, 0, 655395, 0, 0, 655396, 0, 0, 655397, 0, 0, 655398, -1610612735, 0, 655399, -1610612732, 0, 655400, 4, 0, 655401, 4, 0, 720897, 0, 0, 720898, 0, 0, 720899, 0, 0, 720900, 0, 0, 720901, 0, 0, 720902, 0, 0, 720903, 0, 0, 720904, 0, 0, 720905, 0, 0, 720906, 0, 0, 720907, 0, 0, 720908, 0, 0, 720909, 0, 0, 720910, 0, 0, 720911, 0, 0, 720912, 0, 0, 720913, 0, 0, 720914, 0, 0, 720915, 0, 0, 720916, 0, 0, 720917, 0, 0, 720918, 0, 0, 720919, 0, 0, 720920, 0, 0, 720921, 0, 0, 720922, 0, 0, 720923, 0, 0, 720924, 0, 0, 720925, 0, 0, 720926, 0, 0, 720927, 0, 0, 720928, 0, 0, 720929, 0, 0, 720930, 0, 0, 720931, 0, 0, 720932, 0, 0, 720933, 0, 0, 720934, -1610612735, 0, 720935, -1610612732, 0, 720936, 4, 0, 720937, 4, 0, 851966, 4, 0, 851967, 4, 0, 786432, -1610612732, 0, 786433, -1073741823, 0, 786434, 0, 0, 786435, 0, 0, 786436, 0, 0, 786437, 0, 0, 786438, 0, 0, 786439, 0, 0, 786440, 0, 0, 786441, 0, 0, 786442, 0, 0, 786443, 0, 0, 786444, 0, 0, 786445, 0, 0, 786446, 0, 0, 786447, 0, 0, 786448, 0, 0, 786449, 0, 0, 786450, 0, 0, 786451, 0, 0, 786452, 0, 0, 786453, 0, 0, 786454, 0, 0, 786455, 0, 0, 786456, 0, 0, 786457, 0, 0, 786458, 0, 0, 786459, 0, 0, 786460, 0, 0, 786461, 0, 0, 786462, 0, 0, 786463, 0, 0, 786464, 0, 0, 786465, 0, 0, 786466, 0, 0, 786467, 0, 0, 786468, 0, 0, 786469, 0, 0, 786470, -1610612735, 0, 786471, -1610612732, 0, 786472, 4, 0, 786473, 4, 0, 917502, 4, 0, 917503, 4, 0, 851968, -1610612732, 0, 851969, -1073741823, 0, 851970, 0, 0, 851971, 0, 0, 851972, 0, 0, 851973, 0, 0, 851974, 0, 0, 851975, 0, 0, 851976, 0, 0, 851977, 0, 0, 851978, 0, 0, 851979, 0, 0, 851980, 0, 0, 851981, 0, 0, 851982, 0, 0, 851983, 0, 0, 851984, 0, 0, 851985, 0, 0, 851986, 0, 0, 851987, 0, 0, 851988, 0, 0, 851989, 0, 0, 851990, 0, 0, 851991, 0, 0, 851992, 0, 0, 851993, 0, 0, 851994, 0, 0, 851995, 0, 0, 851996, 0, 0, 851997, 0, 0, 851998, 0, 0, 851999, 0, 0, 852000, 0, 0, 852001, 0, 0, 852002, 0, 0, 852003, 0, 0, 852004, 0, 0, 852005, 0, 0, 852006, -1610612735, 0, 852007, -1610612732, 0, 852008, 4, 0, 852009, 4, 0, 983038, 4, 0, 983039, 4, 0, 917504, -1610612732, 0, 917505, -1073741823, 0, 917506, 0, 0, 917507, 0, 0, 917508, 0, 0, 917509, 0, 0, 917510, 0, 0, 917511, 0, 0, 917512, 0, 0, 917513, 0, 0, 917514, 0, 0, 917515, 0, 0, 917516, 0, 0, 917517, 0, 0, 917518, 0, 0, 917519, 0, 0, 917520, 0, 0, 917521, 0, 0, 917522, 0, 0, 917523, 0, 0, 917524, 0, 0, 917525, 0, 0, 917526, 0, 0, 917527, 0, 0, 917528, 0, 0, 917529, 0, 0, 917530, 0, 0, 917531, 0, 0, 917532, 0, 0, 917533, 0, 0, 917534, 0, 0, 917535, 0, 0, 917536, 0, 0, 917537, 0, 0, 917538, 0, 0, 917539, 0, 0, 917540, 0, 0, 917541, 0, 0, 917542, -1610612735, 0, 917543, -1610612732, 0, 917544, 4, 0, 917545, 4, 0, 1048574, 4, 0, 1048575, 4, 0, 983040, -1610612732, 0, 983041, -1073741823, 0, 983042, 0, 0, 983043, 0, 0, 983044, 0, 0, 983045, 0, 0, 983046, 0, 0, 983047, 0, 0, 983048, 0, 0, 983049, 0, 0, 983050, 0, 0, 983051, 0, 0, 983052, 0, 0, 983053, 0, 0, 983054, 0, 0, 983055, 0, 0, 983056, 0, 0, 983057, 0, 0, 983058, 0, 0, 983059, 0, 0, 983060, 0, 0, 983061, 0, 0, 983062, 0, 0, 983063, 0, 0, 983064, 0, 0, 983065, 0, 0, 983066, 0, 0, 983067, 0, 0, 983068, 0, 0, 983069, 0, 0, 983070, 0, 0, 983071, 0, 0, 983072, 0, 0, 983073, 0, 0, 983074, 0, 0, 983075, 0, 0, 983076, 0, 0, 983077, 0, 0, 983078, -1610612735, 0, 983079, -1610612732, 0, 983080, 4, 0, 983081, 4, 0, 1114110, 4, 0, 1114111, 4, 0, 1048576, -1610612732, 0, 1048577, -1073741823, 0, 1048578, 0, 0, 1048579, 0, 0, 1048580, 0, 0, 1048581, 0, 0, 1048582, 0, 0, 1048583, 0, 0, 1048584, 0, 0, 1048585, 0, 0, 1048586, 0, 0, 1048587, 0, 0, 1048588, 0, 0, 1048589, 0, 0, 1048590, 0, 0, 1048591, 0, 0, 1048592, 0, 0, 1048593, 0, 0, 1048594, 0, 0, 1048595, 0, 0, 1048596, 0, 0, 1048597, 0, 0, 1048598, 0, 0, 1048599, 0, 0, 1048600, 0, 0, 1048601, 0, 0, 1048602, 0, 0, 1048603, 0, 0, 1048604, 0, 0, 1048605, 0, 0, 1048606, 0, 0, 1048607, 0, 0, 1048608, 0, 0, 1048609, 0, 0, 1048610, 0, 0, 1048611, 0, 0, 1048612, 0, 0, 1048613, 0, 0, 1048614, -1610612735, 0, 1048615, -1610612732, 0, 1048616, 4, 0, 1048617, 4, 0, 1179646, 4, 0, 1179647, 4, 0, 1114112, -1610612732, 0, 1114113, -1073741823, 0, 1114114, 0, 0, 1114115, 0, 0, 1114116, 0, 0, 1114117, 0, 0, 1114118, 0, 0, 1114119, 0, 0, 1114120, 0, 0, 1114121, 0, 0, 1114122, 0, 0, 1114123, 0, 0, 1114124, 0, 0, 1114125, 0, 0, 1114126, 0, 0, 1114127, 0, 0, 1114128, 0, 0, 1114129, 0, 0, 1114130, 0, 0, 1114131, 0, 0, 1114132, 0, 0, 1114133, 0, 0, 1114134, 0, 0, 1114135, 0, 0, 1114136, 0, 0, 1114137, 0, 0, 1114138, 0, 0, 1114139, 0, 0, 1114140, 0, 0, 1114141, 0, 0, 1114142, 0, 0, 1114143, 0, 0, 1114144, 0, 0, 1114145, 0, 0, 1114146, 0, 0, 1114147, 0, 0, 1114148, 0, 0, 1114149, 0, 0, 1114150, -1610612735, 0, 1114151, -1610612732, 0, 1114152, 4, 0, 1114153, 4, 0, 1245182, 4, 0, 1245183, 4, 0, 1179648, -1610612732, 0, 1179649, -1073741823, 0, 1179650, 0, 0, 1179651, 0, 0, 1179652, 0, 0, 1179653, 0, 0, 1179654, 0, 0, 1179655, 0, 0, 1179656, 0, 0, 1179657, 0, 0, 1179658, 0, 0, 1179659, 0, 0, 1179660, 0, 0, 1179661, 0, 0, 1179662, 0, 0, 1179663, 0, 0, 1179664, 0, 0, 1179665, 0, 0, 1179666, 0, 0, 1179667, 0, 0, 1179668, 0, 0, 1179669, 0, 0, 1179670, 0, 0, 1179671, 0, 0, 1179672, 0, 0, 1179673, 0, 0, 1179674, 0, 0, 1179675, 0, 0, 1179676, 0, 0, 1179677, 0, 0, 1179678, 0, 0, 1179679, 0, 0, 1179680, 0, 0, 1179681, 0, 0, 1179682, 0, 0, 1179683, 0, 0, 1179684, 0, 0, 1179685, 0, 0, 1179686, -1610612735, 0, 1179687, -1610612732, 0, 1179688, 4, 0, 1179689, 4, 0, 1310718, 4, 0, 1310719, 4, 0, 1245184, -1610612732, 0, 1245185, -1073741823, 0, 1245186, 0, 0, 1245187, 0, 0, 1245188, 0, 0, 1245189, 0, 0, 1245190, 0, 0, 1245191, 0, 0, 1245192, 0, 0, 1245193, 0, 0, 1245194, 0, 0, 1245195, 0, 0, 1245196, 0, 0, 1245197, 0, 0, 1245198, 0, 0, 1245199, 0, 0, 1245200, 0, 0, 1245201, 0, 0, 1245202, 0, 0, 1245203, 0, 0, 1245204, 0, 0, 1245205, 0, 0, 1245206, 0, 0, 1245207, 0, 0, 1245208, 0, 0, 1245209, 0, 0, 1245210, 0, 0, 1245211, 0, 0, 1245212, 0, 0, 1245213, 0, 0, 1245214, 0, 0, 1245215, 0, 0, 1245216, 0, 0, 1245217, 0, 0, 1245218, 0, 0, 1245219, 0, 0, 1245220, 0, 0, 1245221, 0, 0, 1245222, -1610612735, 0, 1245223, -1610612732, 0, 1245224, 4, 0, 1245225, 4, 0, 1376254, 4, 0, 1376255, 4, 0, 1310720, -1610612732, 0, 1310721, -1073741823, 0, 1310722, 0, 0, 1310723, 0, 0, 1310724, 0, 0, 1310725, 0, 0, 1310726, 0, 0, 1310727, 0, 0, 1310728, 0, 0, 1310729, 0, 0, 1310730, 0, 0, 1310731, 0, 0, 1310732, 0, 0, 1310733, 0, 0, 1310734, 0, 0, 1310735, 0, 0, 1310736, 0, 0, 1310737, 0, 0, 1310738, 0, 0, 1310739, 0, 0, 1310740, 0, 0, 1310741, 0, 0, 1310742, 0, 0, 1310743, 0, 0, 1310744, 0, 0, 1310745, 0, 0, 1310746, 0, 0, 1310747, 0, 0, 1310748, 0, 0, 1310749, 0, 0, 1310750, 0, 0, 1310751, 0, 0, 1310752, 0, 0, 1310753, 0, 0, 1310754, 0, 0, 1310755, 0, 0, 1310756, 0, 0, 1310757, 0, 0, 1310758, -1610612735, 0, 1310759, -1610612732, 0, 1310760, 4, 0, 1310761, 4, 0, 1441790, 4, 0, 1441791, 4, 0, 1376256, -1610612732, 0, 1376257, 1610612738, 0, 1376258, 1610612737, 0, 1376259, 1610612737, 0, 1376260, 1610612737, 0, 1376261, 1610612737, 0, 1376262, 1610612737, 0, 1376263, 1610612737, 0, 1376264, 1610612737, 0, 1376265, 1610612737, 0, 1376266, 1610612737, 0, 1376267, 1610612737, 0, 1376268, 1610612737, 0, 1376269, 1610612737, 0, 1376270, 1610612737, 0, 1376271, 1610612737, 0, 1376272, 1610612737, 0, 1376273, 1610612737, 0, 1376274, 1610612737, 0, 1376275, 1610612737, 0, 1376276, 1610612737, 0, 1376277, 1610612737, 0, 1376278, 1610612737, 0, 1376279, 1610612737, 0, 1376280, 1610612737, 0, 1376281, 1610612737, 0, 1376282, 1610612737, 0, 1376283, 1610612737, 0, 1376284, 1610612737, 0, 1376285, 1610612737, 0, 1376286, 1610612737, 0, 1376287, 1610612737, 0, 1376288, 1610612737, 0, 1376289, 1610612737, 0, 1376290, 1610612737, 0, 1376291, 1610612737, 0, 1376292, 1610612737, 0, 1376293, 1610612737, 0, 1376294, -1610612734, 0, 1376295, -1610612732, 0, 1376296, 4, 0, 1376297, 4, 0, 1507326, 4, 0, 1507327, 4, 0, 1441792, -1610612732, 0, 1441793, -1610612732, 0, 1441794, -1610612732, 0, 1441795, -1610612732, 0, 1441796, -1610612732, 0, 1441797, -1610612732, 0, 1441798, -1610612732, 0, 1441799, -1610612732, 0, 1441800, -1610612732, 0, 1441801, -1610612732, 0, 1441802, -1610612732, 0, 1441803, -1610612732, 0, 1441804, -1610612732, 0, 1441805, -1610612732, 0, 1441806, -1610612732, 0, 1441807, -1610612732, 0, 1441808, -1610612732, 0, 1441809, -1610612732, 0, 1441810, -1610612732, 0, 1441811, -1610612732, 0, 1441812, -1610612732, 0, 1441813, -1610612732, 0, 1441814, -1610612732, 0, 1441815, -1610612732, 0, 1441816, -1610612732, 0, 1441817, -1610612732, 0, 1441818, -1610612732, 0, 1441819, -1610612732, 0, 1441820, -1610612732, 0, 1441821, -1610612732, 0, 1441822, -1610612732, 0, 1441823, -1610612732, 0, 1441824, 4, 0, 1441825, 4, 0, 1441826, 4, 0, 1441827, 4, 0, 1441828, -1610612732, 0, 1441829, -1610612732, 0, 1441830, -1610612732, 0, 1441831, -1610612732, 0, 1441832, 4, 0, 1441833, 4, 0, 1572862, 4, 0, 1572863, 4, 0, 1507328, 4, 0, 1507329, 4, 0, 1507330, 4, 0, 1507331, 4, 0, 1507332, 4, 0, 1507333, 4, 0, 1507334, 4, 0, 1507335, 4, 0, 1507336, 4, 0, 1507337, 4, 0, 1507338, 4, 0, 1507339, 4, 0, 1507340, 4, 0, 1507341, 4, 0, 1507342, 4, 0, 1507343, 4, 0, 1507344, 4, 0, 1507345, 4, 0, 1507346, 4, 0, 1507347, 4, 0, 1507348, 4, 0, 1507349, 4, 0, 1507350, 4, 0, 1507351, 4, 0, 1507352, 4, 0, 1507353, 4, 0, 1507354, 4, 0, 1507355, 4, 0, 1507356, 4, 0, 1507357, 4, 0, 1507358, 4, 0, 1507359, 4, 0, 1507360, 4, 0, 1507361, 4, 0, 1507362, 4, 0, 1507363, 4, 0, 1507364, 4, 0, 1507365, 4, 0, 1507366, 4, 0, 1507367, 4, 0, 1507368, 4, 0, 1507369, 4, 0, 1638398, 4, 0, 1638399, 4, 0, 1572864, 4, 0, 1572865, 4, 0, 1572866, 4, 0, 1572867, 4, 0, 1572868, 4, 0, 1572869, 4, 0, 1572870, 4, 0, 1572871, 4, 0, 1572872, 4, 0, 1572873, 4, 0, 1572874, 4, 0, 1572875, 4, 0, 1572876, 4, 0, 1572877, 4, 0, 1572878, 4, 0, 1572879, 4, 0, 1572880, 4, 0, 1572881, 4, 0, 1572882, 4, 0, 1572883, 4, 0, 1572884, 4, 0, 1572885, 4, 0, 1572886, 4, 0, 1572887, 4, 0, 1572888, 4, 0, 1572889, 4, 0, 1572890, 4, 0, 1572891, 4, 0, 1572892, 4, 0, 1572893, 4, 0, 1572894, 4, 0, 1572895, 4, 0, 1572896, 4, 0, 1572897, 4, 0, 1572898, 4, 0, 1572899, 4, 0, 1572900, 4, 0, 1572901, 4, 0, 1572902, 4, 0, 1572903, 4, 0, 1572904, 4, 0, 1572905, 4, 0 )

[node name="parede" type="Area2D" parent="."]

[node name="paredeColision" type="CollisionShape2D" parent="parede"]
position = Vector2( 640.286, 92.314 )
shape = SubResource( 1 )

[node name="teto" type="Area2D" parent="."]

[node name="ladoEsquerdo" type="CollisionShape2D" parent="teto"]
position = Vector2( 16.8421, 351.137 )
shape = SubResource( 2 )

[node name="ladoDireito" type="CollisionShape2D" parent="teto"]
position = Vector2( 1263.61, 351.394 )
shape = SubResource( 2 )

[node name="Teto" type="CollisionShape2D" parent="teto"]
position = Vector2( 638.334, 717.82 )
shape = SubResource( 3 )

[node name="Player" parent="." instance=ExtResource( 2 )]
position = Vector2( 592, 368 )
scale = Vector2( 0.3, 0.3 )
