[gd_scene load_steps=3 format=2]

[ext_resource path="res://assets/misc/white square.png" type="Texture" id=1]
[ext_resource path="res://assets/misc/Control.gd" type="Script" id=2]

[node name="Control" type="Control"]
show_behind_parent = true
margin_left = -20.0
margin_top = -20.0
margin_right = 20.0
margin_bottom = 20.0
script = ExtResource( 2 )
__meta__ = {
"_edit_use_anchors_": false
}

[node name="TextureRect" type="TextureRect" parent="."]
modulate = Color( 0.768627, 0.415686, 0.415686, 1 )
anchor_right = 1.0
anchor_bottom = 1.0
texture = ExtResource( 1 )
expand = true
__meta__ = {
"_edit_use_anchors_": false
}

[node name="Timer" type="Timer" parent="."]
wait_time = 0.5
one_shot = true
autostart = true
[connection signal="timeout" from="Timer" to="." method="_on_Timer_timeout"]
